F tremain.knight              0.02 GBP        198875765 2015-09-28 15:09:54 GMT moose:/adhoc/projects/hpcdecoupler/cdi/ukv_frozen_autosat/20150928T0900Z-000-level_1-01_00010_0.nc
F tremain.knight              0.02 GBP        198875873 2015-09-28 15:09:55 GMT moose:/adhoc/projects/hpcdecoupler/cdi/ukv_frozen_autosat/20150928T0900Z-000-level_1-01_00012_0.nc
F tremain.knight              0.00 GBP          2785996 2015-09-28 15:09:47 GMT moose:/adhoc/projects/hpcdecoupler/cdi/ukv_frozen_autosat/20150928T0900Z-000-level_1-01_00023_0.nc
F tremain.knight              0.00 GBP          2785996 2015-09-28 15:09:47 GMT moose:/adhoc/projects/hpcdecoupler/cdi/ukv_frozen_autosat/20150928T0900Z-000-level_1-01_00024_0.nc
F tremain.knight              0.00 GBP          5547677 2015-09-28 15:09:48 GMT moose:/adhoc/projects/hpcdecoupler/cdi/ukv_frozen_autosat/20150928T0900Z-000-level_1-01_00031_0.nc
F tremain.knight              0.00 GBP          2785962 2015-09-28 15:09:48 GMT moose:/adhoc/projects/hpcdecoupler/cdi/ukv_frozen_autosat/20150928T0900Z-000-level_1-01_00033_0.nc
F tremain.knight              0.02 GBP        198875911 2015-09-28 15:09:56 GMT moose:/adhoc/projects/hpcdecoupler/cdi/ukv_frozen_autosat/20150928T0900Z-000-level_1-01_00254_0.nc
F tremain.knight              0.02 GBP        196114253 2015-09-28 15:10:01 GMT moose:/adhoc/projects/hpcdecoupler/cdi/ukv_frozen_autosat/20150928T0900Z-000-level_1-01_00266_0.nc
F tremain.knight              0.02 GBP        196114166 2015-09-28 15:10:02 GMT moose:/adhoc/projects/hpcdecoupler/cdi/ukv_frozen_autosat/20150928T0900Z-000-level_1-01_00267_0.nc
F tremain.knight              0.02 GBP        196114253 2015-09-28 15:10:02 GMT moose:/adhoc/projects/hpcdecoupler/cdi/ukv_frozen_autosat/20150928T0900Z-000-level_1-01_00268_0.nc
F tremain.knight              0.02 GBP        196114037 2015-09-28 15:10:08 GMT moose:/adhoc/projects/hpcdecoupler/cdi/ukv_frozen_autosat/20150928T0900Z-000-level_1-01_00408_0.nc
F tremain.knight              0.00 GBP          2785996 2015-09-28 15:10:02 GMT moose:/adhoc/projects/hpcdecoupler/cdi/ukv_frozen_autosat/20150928T0900Z-000-level_1-01_00409_0.nc
F tremain.knight              0.00 GBP          2786198 2015-09-28 15:10:02 GMT moose:/adhoc/projects/hpcdecoupler/cdi/ukv_frozen_autosat/20150928T0900Z-000-level_1-01_03209_0.nc
F tremain.knight              0.00 GBP          2789182 2015-09-28 15:10:02 GMT moose:/adhoc/projects/hpcdecoupler/cdi/ukv_frozen_autosat/20150928T0900Z-000-level_1-01_03210_0.nc
F tremain.knight              0.02 GBP        196114142 2015-09-28 15:10:10 GMT moose:/adhoc/projects/hpcdecoupler/cdi/ukv_frozen_autosat/20150928T0900Z-000-level_1-01_09229_0.nc
F tremain.knight              0.02 GBP        196114142 2015-09-28 15:10:08 GMT moose:/adhoc/projects/hpcdecoupler/cdi/ukv_frozen_autosat/20150928T0900Z-000-level_1-01_16004_0.nc
F tremain.knight              0.02 GBP        196114142 2015-09-28 15:10:13 GMT moose:/adhoc/projects/hpcdecoupler/cdi/ukv_frozen_autosat/20150928T0900Z-000-level_1-01_16201_0.nc
F tremain.knight              0.00 GBP          2785996 2015-09-28 15:10:08 GMT moose:/adhoc/projects/hpcdecoupler/cdi/ukv_frozen_autosat/20150928T0900Z-000-level_1-01_16222_0.nc
F tremain.knight              0.17 GBP       1571456897 2015-09-28 15:11:10 GMT moose:/adhoc/projects/hpcdecoupler/cdi/ukv_frozen_autosat/20150928T0900Z-002-level_1-01_00010_0.nc
F tremain.knight              0.17 GBP       1571456800 2015-09-28 15:11:06 GMT moose:/adhoc/projects/hpcdecoupler/cdi/ukv_frozen_autosat/20150928T0900Z-002-level_1-01_00012_0.nc
F tremain.knight              0.00 GBP          5547857 2015-09-28 15:10:13 GMT moose:/adhoc/projects/hpcdecoupler/cdi/ukv_frozen_autosat/20150928T0900Z-002-level_1-01_00023_0.nc
F tremain.knight              0.00 GBP          5547857 2015-09-28 15:10:13 GMT moose:/adhoc/projects/hpcdecoupler/cdi/ukv_frozen_autosat/20150928T0900Z-002-level_1-01_00024_0.nc
F tremain.knight              0.00 GBP         11071260 2015-09-28 15:10:14 GMT moose:/adhoc/projects/hpcdecoupler/cdi/ukv_frozen_autosat/20150928T0900Z-002-level_1-01_00031_0.nc
F tremain.knight              0.00 GBP          5547857 2015-09-28 15:10:14 GMT moose:/adhoc/projects/hpcdecoupler/cdi/ukv_frozen_autosat/20150928T0900Z-002-level_1-01_00033_0.nc
F tremain.knight              0.17 GBP       1571456801 2015-09-28 15:11:15 GMT moose:/adhoc/projects/hpcdecoupler/cdi/ukv_frozen_autosat/20150928T0900Z-002-level_1-01_00254_0.nc
F tremain.knight              0.17 GBP       1549361152 2015-09-28 15:11:50 GMT moose:/adhoc/projects/hpcdecoupler/cdi/ukv_frozen_autosat/20150928T0900Z-002-level_1-01_00266_0.nc
F tremain.knight              0.04 GBP        389435160 2015-09-28 15:11:16 GMT moose:/adhoc/projects/hpcdecoupler/cdi/ukv_frozen_autosat/20150928T0900Z-002-level_1-01_00267_0.nc
F tremain.knight              0.04 GBP        389435247 2015-09-28 15:11:21 GMT moose:/adhoc/projects/hpcdecoupler/cdi/ukv_frozen_autosat/20150928T0900Z-002-level_1-01_00268_0.nc
F tremain.knight              0.04 GBP        389435252 2015-09-28 15:11:25 GMT moose:/adhoc/projects/hpcdecoupler/cdi/ukv_frozen_autosat/20150928T0900Z-002-level_1-01_00408_0.nc
F tremain.knight              0.00 GBP          5547857 2015-09-28 15:11:20 GMT moose:/adhoc/projects/hpcdecoupler/cdi/ukv_frozen_autosat/20150928T0900Z-002-level_1-01_00409_0.nc
F tremain.knight              0.00 GBP          5548051 2015-09-28 15:11:21 GMT moose:/adhoc/projects/hpcdecoupler/cdi/ukv_frozen_autosat/20150928T0900Z-002-level_1-01_03209_0.nc
F tremain.knight              0.00 GBP          5554011 2015-09-28 15:11:21 GMT moose:/adhoc/projects/hpcdecoupler/cdi/ukv_frozen_autosat/20150928T0900Z-002-level_1-01_03210_0.nc
F tremain.knight              0.04 GBP        389435298 2015-09-28 15:11:34 GMT moose:/adhoc/projects/hpcdecoupler/cdi/ukv_frozen_autosat/20150928T0900Z-002-level_1-01_09229_0.nc
F tremain.knight              0.04 GBP        389435252 2015-09-28 15:14:15 GMT moose:/adhoc/projects/hpcdecoupler/cdi/ukv_frozen_autosat/20150928T0900Z-002-level_1-01_16004_0.nc
F tremain.knight              0.04 GBP        389435298 2015-09-28 15:11:45 GMT moose:/adhoc/projects/hpcdecoupler/cdi/ukv_frozen_autosat/20150928T0900Z-002-level_1-01_16201_0.nc
F tremain.knight              0.01 GBP         66305866 2015-09-28 15:11:34 GMT moose:/adhoc/projects/hpcdecoupler/cdi/ukv_frozen_autosat/20150928T0900Z-002-level_1-01_16222_0.nc
F tremain.knight              0.17 GBP       1571456897 2015-09-28 15:12:15 GMT moose:/adhoc/projects/hpcdecoupler/cdi/ukv_frozen_autosat/20150928T0900Z-004-level_1-01_00010_0.nc
F tremain.knight              0.17 GBP       1571456800 2015-09-28 15:12:27 GMT moose:/adhoc/projects/hpcdecoupler/cdi/ukv_frozen_autosat/20150928T0900Z-004-level_1-01_00012_0.nc
F tremain.knight              0.00 GBP          5547857 2015-09-28 15:11:43 GMT moose:/adhoc/projects/hpcdecoupler/cdi/ukv_frozen_autosat/20150928T0900Z-004-level_1-01_00023_0.nc
F tremain.knight              0.00 GBP          5547857 2015-09-28 15:11:51 GMT moose:/adhoc/projects/hpcdecoupler/cdi/ukv_frozen_autosat/20150928T0900Z-004-level_1-01_00024_0.nc
F tremain.knight              0.00 GBP         11071260 2015-09-28 15:11:44 GMT moose:/adhoc/projects/hpcdecoupler/cdi/ukv_frozen_autosat/20150928T0900Z-004-level_1-01_00031_0.nc
F tremain.knight              0.00 GBP          5547857 2015-09-28 15:11:45 GMT moose:/adhoc/projects/hpcdecoupler/cdi/ukv_frozen_autosat/20150928T0900Z-004-level_1-01_00033_0.nc
F tremain.knight              0.17 GBP       1571456801 2015-09-28 15:12:30 GMT moose:/adhoc/projects/hpcdecoupler/cdi/ukv_frozen_autosat/20150928T0900Z-004-level_1-01_00254_0.nc
F tremain.knight              0.17 GBP       1549361152 2015-09-28 15:12:57 GMT moose:/adhoc/projects/hpcdecoupler/cdi/ukv_frozen_autosat/20150928T0900Z-004-level_1-01_00266_0.nc
F tremain.knight              0.04 GBP        389435160 2015-09-28 15:12:33 GMT moose:/adhoc/projects/hpcdecoupler/cdi/ukv_frozen_autosat/20150928T0900Z-004-level_1-01_00267_0.nc
F tremain.knight              0.04 GBP        389435247 2015-09-28 15:12:34 GMT moose:/adhoc/projects/hpcdecoupler/cdi/ukv_frozen_autosat/20150928T0900Z-004-level_1-01_00268_0.nc
F tremain.knight              0.04 GBP        389435252 2015-09-28 15:12:42 GMT moose:/adhoc/projects/hpcdecoupler/cdi/ukv_frozen_autosat/20150928T0900Z-004-level_1-01_00408_0.nc
F tremain.knight              0.00 GBP          5547857 2015-09-28 15:12:32 GMT moose:/adhoc/projects/hpcdecoupler/cdi/ukv_frozen_autosat/20150928T0900Z-004-level_1-01_00409_0.nc
F tremain.knight              0.00 GBP          5548051 2015-09-28 15:12:32 GMT moose:/adhoc/projects/hpcdecoupler/cdi/ukv_frozen_autosat/20150928T0900Z-004-level_1-01_03209_0.nc
F tremain.knight              0.00 GBP          5554011 2015-09-28 15:12:35 GMT moose:/adhoc/projects/hpcdecoupler/cdi/ukv_frozen_autosat/20150928T0900Z-004-level_1-01_03210_0.nc
F tremain.knight              0.04 GBP        389435298 2015-09-28 15:12:41 GMT moose:/adhoc/projects/hpcdecoupler/cdi/ukv_frozen_autosat/20150928T0900Z-004-level_1-01_09229_0.nc
F tremain.knight              0.04 GBP        389435252 2015-09-28 15:12:51 GMT moose:/adhoc/projects/hpcdecoupler/cdi/ukv_frozen_autosat/20150928T0900Z-004-level_1-01_16004_0.nc
F tremain.knight              0.04 GBP        389435298 2015-09-28 15:12:52 GMT moose:/adhoc/projects/hpcdecoupler/cdi/ukv_frozen_autosat/20150928T0900Z-004-level_1-01_16201_0.nc
F tremain.knight              0.01 GBP         66305866 2015-09-28 15:12:49 GMT moose:/adhoc/projects/hpcdecoupler/cdi/ukv_frozen_autosat/20150928T0900Z-004-level_1-01_16222_0.nc
F tremain.knight              0.17 GBP       1571456897 2015-09-28 15:13:46 GMT moose:/adhoc/projects/hpcdecoupler/cdi/ukv_frozen_autosat/20150928T0900Z-006-level_1-01_00010_0.nc
F tremain.knight              0.17 GBP       1571456800 2015-09-28 15:13:35 GMT moose:/adhoc/projects/hpcdecoupler/cdi/ukv_frozen_autosat/20150928T0900Z-006-level_1-01_00012_0.nc
F tremain.knight              0.00 GBP          5547857 2015-09-28 15:12:50 GMT moose:/adhoc/projects/hpcdecoupler/cdi/ukv_frozen_autosat/20150928T0900Z-006-level_1-01_00023_0.nc
F tremain.knight              0.00 GBP          5547857 2015-09-28 15:12:58 GMT moose:/adhoc/projects/hpcdecoupler/cdi/ukv_frozen_autosat/20150928T0900Z-006-level_1-01_00024_0.nc
F tremain.knight              0.00 GBP         11071260 2015-09-28 15:12:52 GMT moose:/adhoc/projects/hpcdecoupler/cdi/ukv_frozen_autosat/20150928T0900Z-006-level_1-01_00031_0.nc
F tremain.knight              0.00 GBP          5547857 2015-09-28 15:12:53 GMT moose:/adhoc/projects/hpcdecoupler/cdi/ukv_frozen_autosat/20150928T0900Z-006-level_1-01_00033_0.nc
F tremain.knight              0.17 GBP       1571456801 2015-09-28 15:13:33 GMT moose:/adhoc/projects/hpcdecoupler/cdi/ukv_frozen_autosat/20150928T0900Z-006-level_1-01_00254_0.nc
F tremain.knight              0.17 GBP       1549361152 2015-09-28 15:14:04 GMT moose:/adhoc/projects/hpcdecoupler/cdi/ukv_frozen_autosat/20150928T0900Z-006-level_1-01_00266_0.nc
F tremain.knight              0.04 GBP        389435160 2015-09-28 15:13:48 GMT moose:/adhoc/projects/hpcdecoupler/cdi/ukv_frozen_autosat/20150928T0900Z-006-level_1-01_00267_0.nc
F tremain.knight              0.04 GBP        389435247 2015-09-28 15:13:43 GMT moose:/adhoc/projects/hpcdecoupler/cdi/ukv_frozen_autosat/20150928T0900Z-006-level_1-01_00268_0.nc
F tremain.knight              0.04 GBP        389435252 2015-09-28 15:13:48 GMT moose:/adhoc/projects/hpcdecoupler/cdi/ukv_frozen_autosat/20150928T0900Z-006-level_1-01_00408_0.nc
F tremain.knight              0.00 GBP          5547857 2015-09-28 15:13:41 GMT moose:/adhoc/projects/hpcdecoupler/cdi/ukv_frozen_autosat/20150928T0900Z-006-level_1-01_00409_0.nc
F tremain.knight              0.00 GBP          5548051 2015-09-28 15:13:42 GMT moose:/adhoc/projects/hpcdecoupler/cdi/ukv_frozen_autosat/20150928T0900Z-006-level_1-01_03209_0.nc
F tremain.knight              0.00 GBP          5554011 2015-09-28 15:13:42 GMT moose:/adhoc/projects/hpcdecoupler/cdi/ukv_frozen_autosat/20150928T0900Z-006-level_1-01_03210_0.nc
F tremain.knight              0.04 GBP        389435298 2015-09-28 15:13:54 GMT moose:/adhoc/projects/hpcdecoupler/cdi/ukv_frozen_autosat/20150928T0900Z-006-level_1-01_09229_0.nc
F tremain.knight              0.04 GBP        389435252 2015-09-28 15:13:56 GMT moose:/adhoc/projects/hpcdecoupler/cdi/ukv_frozen_autosat/20150928T0900Z-006-level_1-01_16004_0.nc
F tremain.knight              0.04 GBP        389435298 2015-09-28 15:14:03 GMT moose:/adhoc/projects/hpcdecoupler/cdi/ukv_frozen_autosat/20150928T0900Z-006-level_1-01_16201_0.nc
F tremain.knight              0.01 GBP         66305866 2015-09-28 15:13:57 GMT moose:/adhoc/projects/hpcdecoupler/cdi/ukv_frozen_autosat/20150928T0900Z-006-level_1-01_16222_0.nc
F tremain.knight              0.17 GBP       1571456897 2015-09-28 15:14:55 GMT moose:/adhoc/projects/hpcdecoupler/cdi/ukv_frozen_autosat/20150928T0900Z-008-level_1-01_00010_0.nc
F tremain.knight              0.17 GBP       1571456800 2015-09-28 15:14:54 GMT moose:/adhoc/projects/hpcdecoupler/cdi/ukv_frozen_autosat/20150928T0900Z-008-level_1-01_00012_0.nc
F tremain.knight              0.00 GBP          5547857 2015-09-28 15:14:01 GMT moose:/adhoc/projects/hpcdecoupler/cdi/ukv_frozen_autosat/20150928T0900Z-008-level_1-01_00023_0.nc
F tremain.knight              0.00 GBP          5547857 2015-09-28 15:14:02 GMT moose:/adhoc/projects/hpcdecoupler/cdi/ukv_frozen_autosat/20150928T0900Z-008-level_1-01_00024_0.nc
F tremain.knight              0.00 GBP         11071260 2015-09-28 15:14:02 GMT moose:/adhoc/projects/hpcdecoupler/cdi/ukv_frozen_autosat/20150928T0900Z-008-level_1-01_00031_0.nc
F tremain.knight              0.00 GBP          5547857 2015-09-28 15:14:05 GMT moose:/adhoc/projects/hpcdecoupler/cdi/ukv_frozen_autosat/20150928T0900Z-008-level_1-01_00033_0.nc
F tremain.knight              0.17 GBP       1571456801 2015-09-28 15:15:05 GMT moose:/adhoc/projects/hpcdecoupler/cdi/ukv_frozen_autosat/20150928T0900Z-008-level_1-01_00254_0.nc
F tremain.knight              0.17 GBP       1549361152 2015-09-28 15:15:32 GMT moose:/adhoc/projects/hpcdecoupler/cdi/ukv_frozen_autosat/20150928T0900Z-008-level_1-01_00266_0.nc
F tremain.knight              0.04 GBP        389435160 2015-09-28 15:15:05 GMT moose:/adhoc/projects/hpcdecoupler/cdi/ukv_frozen_autosat/20150928T0900Z-008-level_1-01_00267_0.nc
F tremain.knight              0.04 GBP        389435247 2015-09-28 15:15:16 GMT moose:/adhoc/projects/hpcdecoupler/cdi/ukv_frozen_autosat/20150928T0900Z-008-level_1-01_00268_0.nc
F tremain.knight              0.04 GBP        389435252 2015-09-28 15:15:14 GMT moose:/adhoc/projects/hpcdecoupler/cdi/ukv_frozen_autosat/20150928T0900Z-008-level_1-01_00408_0.nc
F tremain.knight              0.00 GBP          5547857 2015-09-28 15:15:10 GMT moose:/adhoc/projects/hpcdecoupler/cdi/ukv_frozen_autosat/20150928T0900Z-008-level_1-01_00409_0.nc
F tremain.knight              0.00 GBP          5548051 2015-09-28 15:15:11 GMT moose:/adhoc/projects/hpcdecoupler/cdi/ukv_frozen_autosat/20150928T0900Z-008-level_1-01_03209_0.nc
F tremain.knight              0.00 GBP          5554011 2015-09-28 15:15:12 GMT moose:/adhoc/projects/hpcdecoupler/cdi/ukv_frozen_autosat/20150928T0900Z-008-level_1-01_03210_0.nc
F tremain.knight              0.04 GBP        389435298 2015-09-28 15:15:22 GMT moose:/adhoc/projects/hpcdecoupler/cdi/ukv_frozen_autosat/20150928T0900Z-008-level_1-01_09229_0.nc
F tremain.knight              0.04 GBP        389435252 2015-09-28 15:15:24 GMT moose:/adhoc/projects/hpcdecoupler/cdi/ukv_frozen_autosat/20150928T0900Z-008-level_1-01_16004_0.nc
F tremain.knight              0.04 GBP        389435298 2015-09-28 15:15:35 GMT moose:/adhoc/projects/hpcdecoupler/cdi/ukv_frozen_autosat/20150928T0900Z-008-level_1-01_16201_0.nc
F tremain.knight              0.01 GBP         66305866 2015-09-28 15:15:24 GMT moose:/adhoc/projects/hpcdecoupler/cdi/ukv_frozen_autosat/20150928T0900Z-008-level_1-01_16222_0.nc
F tremain.knight              0.17 GBP       1571456897 2015-09-28 15:16:06 GMT moose:/adhoc/projects/hpcdecoupler/cdi/ukv_frozen_autosat/20150928T0900Z-010-level_1-01_00010_0.nc
F tremain.knight              0.17 GBP       1571456800 2015-09-28 15:16:05 GMT moose:/adhoc/projects/hpcdecoupler/cdi/ukv_frozen_autosat/20150928T0900Z-010-level_1-01_00012_0.nc
F tremain.knight              0.00 GBP          5547857 2015-09-28 15:15:29 GMT moose:/adhoc/projects/hpcdecoupler/cdi/ukv_frozen_autosat/20150928T0900Z-010-level_1-01_00023_0.nc
F tremain.knight              0.00 GBP          5547857 2015-09-28 15:15:29 GMT moose:/adhoc/projects/hpcdecoupler/cdi/ukv_frozen_autosat/20150928T0900Z-010-level_1-01_00024_0.nc
F tremain.knight              0.00 GBP         11071260 2015-09-28 15:15:30 GMT moose:/adhoc/projects/hpcdecoupler/cdi/ukv_frozen_autosat/20150928T0900Z-010-level_1-01_00031_0.nc
F tremain.knight              0.00 GBP          5547857 2015-09-28 15:15:30 GMT moose:/adhoc/projects/hpcdecoupler/cdi/ukv_frozen_autosat/20150928T0900Z-010-level_1-01_00033_0.nc
F tremain.knight              0.17 GBP       1571456801 2015-09-28 15:16:23 GMT moose:/adhoc/projects/hpcdecoupler/cdi/ukv_frozen_autosat/20150928T0900Z-010-level_1-01_00254_0.nc
F tremain.knight              0.17 GBP       1549361152 2015-09-28 15:16:47 GMT moose:/adhoc/projects/hpcdecoupler/cdi/ukv_frozen_autosat/20150928T0900Z-010-level_1-01_00266_0.nc
F tremain.knight              0.04 GBP        389435160 2015-09-28 15:16:12 GMT moose:/adhoc/projects/hpcdecoupler/cdi/ukv_frozen_autosat/20150928T0900Z-010-level_1-01_00267_0.nc
F tremain.knight              0.04 GBP        389435247 2015-09-28 15:16:19 GMT moose:/adhoc/projects/hpcdecoupler/cdi/ukv_frozen_autosat/20150928T0900Z-010-level_1-01_00268_0.nc
F tremain.knight              0.04 GBP        389435252 2015-09-28 15:16:20 GMT moose:/adhoc/projects/hpcdecoupler/cdi/ukv_frozen_autosat/20150928T0900Z-010-level_1-01_00408_0.nc
F tremain.knight              0.00 GBP          5547857 2015-09-28 15:16:24 GMT moose:/adhoc/projects/hpcdecoupler/cdi/ukv_frozen_autosat/20150928T0900Z-010-level_1-01_00409_0.nc
F tremain.knight              0.00 GBP          5548051 2015-09-28 15:16:19 GMT moose:/adhoc/projects/hpcdecoupler/cdi/ukv_frozen_autosat/20150928T0900Z-010-level_1-01_03209_0.nc
F tremain.knight              0.00 GBP          5554011 2015-09-28 15:16:20 GMT moose:/adhoc/projects/hpcdecoupler/cdi/ukv_frozen_autosat/20150928T0900Z-010-level_1-01_03210_0.nc
F tremain.knight              0.04 GBP        389435298 2015-09-28 15:16:29 GMT moose:/adhoc/projects/hpcdecoupler/cdi/ukv_frozen_autosat/20150928T0900Z-010-level_1-01_09229_0.nc
F tremain.knight              0.04 GBP        389435252 2015-09-28 15:16:31 GMT moose:/adhoc/projects/hpcdecoupler/cdi/ukv_frozen_autosat/20150928T0900Z-010-level_1-01_16004_0.nc
F tremain.knight              0.04 GBP        389435298 2015-09-28 15:16:40 GMT moose:/adhoc/projects/hpcdecoupler/cdi/ukv_frozen_autosat/20150928T0900Z-010-level_1-01_16201_0.nc
F tremain.knight              0.01 GBP         66305866 2015-09-28 15:16:32 GMT moose:/adhoc/projects/hpcdecoupler/cdi/ukv_frozen_autosat/20150928T0900Z-010-level_1-01_16222_0.nc
F tremain.knight              0.17 GBP       1571456897 2015-09-28 15:17:18 GMT moose:/adhoc/projects/hpcdecoupler/cdi/ukv_frozen_autosat/20150928T0900Z-012-level_1-01_00010_0.nc
F tremain.knight              0.17 GBP       1571456800 2015-09-28 15:17:21 GMT moose:/adhoc/projects/hpcdecoupler/cdi/ukv_frozen_autosat/20150928T0900Z-012-level_1-01_00012_0.nc
F tremain.knight              0.00 GBP          5547857 2015-09-28 15:16:38 GMT moose:/adhoc/projects/hpcdecoupler/cdi/ukv_frozen_autosat/20150928T0900Z-012-level_1-01_00023_0.nc
F tremain.knight              0.00 GBP          5547857 2015-09-28 15:16:39 GMT moose:/adhoc/projects/hpcdecoupler/cdi/ukv_frozen_autosat/20150928T0900Z-012-level_1-01_00024_0.nc
F tremain.knight              0.00 GBP         11071260 2015-09-28 15:16:39 GMT moose:/adhoc/projects/hpcdecoupler/cdi/ukv_frozen_autosat/20150928T0900Z-012-level_1-01_00031_0.nc
F tremain.knight              0.00 GBP          5547857 2015-09-28 15:16:39 GMT moose:/adhoc/projects/hpcdecoupler/cdi/ukv_frozen_autosat/20150928T0900Z-012-level_1-01_00033_0.nc
F tremain.knight              0.17 GBP       1571456801 2015-09-28 15:17:34 GMT moose:/adhoc/projects/hpcdecoupler/cdi/ukv_frozen_autosat/20150928T0900Z-012-level_1-01_00254_0.nc
F tremain.knight              0.17 GBP       1549361152 2015-09-28 15:18:01 GMT moose:/adhoc/projects/hpcdecoupler/cdi/ukv_frozen_autosat/20150928T0900Z-012-level_1-01_00266_0.nc
F tremain.knight              0.04 GBP        389435160 2015-09-28 15:17:24 GMT moose:/adhoc/projects/hpcdecoupler/cdi/ukv_frozen_autosat/20150928T0900Z-012-level_1-01_00267_0.nc
F tremain.knight              0.04 GBP        389435247 2015-09-28 15:17:31 GMT moose:/adhoc/projects/hpcdecoupler/cdi/ukv_frozen_autosat/20150928T0900Z-012-level_1-01_00268_0.nc
F tremain.knight              0.04 GBP        389435252 2015-09-28 15:17:38 GMT moose:/adhoc/projects/hpcdecoupler/cdi/ukv_frozen_autosat/20150928T0900Z-012-level_1-01_00408_0.nc
F tremain.knight              0.00 GBP          5547857 2015-09-28 15:17:29 GMT moose:/adhoc/projects/hpcdecoupler/cdi/ukv_frozen_autosat/20150928T0900Z-012-level_1-01_00409_0.nc
F tremain.knight              0.00 GBP          5548051 2015-09-28 15:17:29 GMT moose:/adhoc/projects/hpcdecoupler/cdi/ukv_frozen_autosat/20150928T0900Z-012-level_1-01_03209_0.nc
F tremain.knight              0.00 GBP          5554011 2015-09-28 15:17:30 GMT moose:/adhoc/projects/hpcdecoupler/cdi/ukv_frozen_autosat/20150928T0900Z-012-level_1-01_03210_0.nc
F tremain.knight              0.04 GBP        389435298 2015-09-28 15:17:44 GMT moose:/adhoc/projects/hpcdecoupler/cdi/ukv_frozen_autosat/20150928T0900Z-012-level_1-01_09229_0.nc
F tremain.knight              0.04 GBP        389435252 2015-09-28 15:17:45 GMT moose:/adhoc/projects/hpcdecoupler/cdi/ukv_frozen_autosat/20150928T0900Z-012-level_1-01_16004_0.nc
F tremain.knight              0.04 GBP        389435298 2015-09-28 15:17:52 GMT moose:/adhoc/projects/hpcdecoupler/cdi/ukv_frozen_autosat/20150928T0900Z-012-level_1-01_16201_0.nc
F tremain.knight              0.01 GBP         66305866 2015-09-28 15:17:47 GMT moose:/adhoc/projects/hpcdecoupler/cdi/ukv_frozen_autosat/20150928T0900Z-012-level_1-01_16222_0.nc
F tremain.knight              0.17 GBP       1571456897 2015-09-28 15:18:28 GMT moose:/adhoc/projects/hpcdecoupler/cdi/ukv_frozen_autosat/20150928T0900Z-014-level_1-01_00010_0.nc
F tremain.knight              0.17 GBP       1571456800 2015-09-28 15:18:32 GMT moose:/adhoc/projects/hpcdecoupler/cdi/ukv_frozen_autosat/20150928T0900Z-014-level_1-01_00012_0.nc
F tremain.knight              0.00 GBP          5547857 2015-09-28 15:17:57 GMT moose:/adhoc/projects/hpcdecoupler/cdi/ukv_frozen_autosat/20150928T0900Z-014-level_1-01_00023_0.nc
F tremain.knight              0.00 GBP          5547857 2015-09-28 15:18:49 GMT moose:/adhoc/projects/hpcdecoupler/cdi/ukv_frozen_autosat/20150928T0900Z-014-level_1-01_00024_0.nc
F tremain.knight              0.00 GBP         11071260 2015-09-28 15:17:58 GMT moose:/adhoc/projects/hpcdecoupler/cdi/ukv_frozen_autosat/20150928T0900Z-014-level_1-01_00031_0.nc
F tremain.knight              0.00 GBP          5547857 2015-09-28 15:17:58 GMT moose:/adhoc/projects/hpcdecoupler/cdi/ukv_frozen_autosat/20150928T0900Z-014-level_1-01_00033_0.nc
F tremain.knight              0.17 GBP       1571456801 2015-09-28 15:18:45 GMT moose:/adhoc/projects/hpcdecoupler/cdi/ukv_frozen_autosat/20150928T0900Z-014-level_1-01_00254_0.nc
F tremain.knight              0.17 GBP       1549361152 2015-09-28 15:19:15 GMT moose:/adhoc/projects/hpcdecoupler/cdi/ukv_frozen_autosat/20150928T0900Z-014-level_1-01_00266_0.nc
F tremain.knight              0.04 GBP        389435160 2015-09-28 15:18:38 GMT moose:/adhoc/projects/hpcdecoupler/cdi/ukv_frozen_autosat/20150928T0900Z-014-level_1-01_00267_0.nc
F tremain.knight              0.04 GBP        389435247 2015-09-28 15:18:46 GMT moose:/adhoc/projects/hpcdecoupler/cdi/ukv_frozen_autosat/20150928T0900Z-014-level_1-01_00268_0.nc
F tremain.knight              0.04 GBP        389435252 2015-09-28 15:18:55 GMT moose:/adhoc/projects/hpcdecoupler/cdi/ukv_frozen_autosat/20150928T0900Z-014-level_1-01_00408_0.nc
F tremain.knight              0.00 GBP          5547857 2015-09-28 15:18:44 GMT moose:/adhoc/projects/hpcdecoupler/cdi/ukv_frozen_autosat/20150928T0900Z-014-level_1-01_00409_0.nc
F tremain.knight              0.00 GBP          5548051 2015-09-28 15:18:45 GMT moose:/adhoc/projects/hpcdecoupler/cdi/ukv_frozen_autosat/20150928T0900Z-014-level_1-01_03209_0.nc
F tremain.knight              0.00 GBP          5554011 2015-09-28 15:18:45 GMT moose:/adhoc/projects/hpcdecoupler/cdi/ukv_frozen_autosat/20150928T0900Z-014-level_1-01_03210_0.nc
F tremain.knight              0.04 GBP        389435298 2015-09-28 15:18:53 GMT moose:/adhoc/projects/hpcdecoupler/cdi/ukv_frozen_autosat/20150928T0900Z-014-level_1-01_09229_0.nc
F tremain.knight              0.04 GBP        389435252 2015-09-28 15:19:01 GMT moose:/adhoc/projects/hpcdecoupler/cdi/ukv_frozen_autosat/20150928T0900Z-014-level_1-01_16004_0.nc
F tremain.knight              0.04 GBP        389435298 2015-09-28 15:19:05 GMT moose:/adhoc/projects/hpcdecoupler/cdi/ukv_frozen_autosat/20150928T0900Z-014-level_1-01_16201_0.nc
F tremain.knight              0.01 GBP         66305866 2015-09-28 15:19:00 GMT moose:/adhoc/projects/hpcdecoupler/cdi/ukv_frozen_autosat/20150928T0900Z-014-level_1-01_16222_0.nc
F tremain.knight              0.17 GBP       1571456897 2015-09-28 15:19:47 GMT moose:/adhoc/projects/hpcdecoupler/cdi/ukv_frozen_autosat/20150928T0900Z-016-level_1-01_00010_0.nc
F tremain.knight              0.17 GBP       1571456800 2015-09-28 15:19:50 GMT moose:/adhoc/projects/hpcdecoupler/cdi/ukv_frozen_autosat/20150928T0900Z-016-level_1-01_00012_0.nc
F tremain.knight              0.00 GBP          5547857 2015-09-28 15:19:05 GMT moose:/adhoc/projects/hpcdecoupler/cdi/ukv_frozen_autosat/20150928T0900Z-016-level_1-01_00023_0.nc
F tremain.knight              0.00 GBP          5547857 2015-09-28 15:19:05 GMT moose:/adhoc/projects/hpcdecoupler/cdi/ukv_frozen_autosat/20150928T0900Z-016-level_1-01_00024_0.nc
F tremain.knight              0.00 GBP         11071260 2015-09-28 15:19:06 GMT moose:/adhoc/projects/hpcdecoupler/cdi/ukv_frozen_autosat/20150928T0900Z-016-level_1-01_00031_0.nc
F tremain.knight              0.00 GBP          5547857 2015-09-28 15:19:06 GMT moose:/adhoc/projects/hpcdecoupler/cdi/ukv_frozen_autosat/20150928T0900Z-016-level_1-01_00033_0.nc
F tremain.knight              0.17 GBP       1571456801 2015-09-28 15:20:02 GMT moose:/adhoc/projects/hpcdecoupler/cdi/ukv_frozen_autosat/20150928T0900Z-016-level_1-01_00254_0.nc
F tremain.knight              0.17 GBP       1549361152 2015-09-28 15:20:21 GMT moose:/adhoc/projects/hpcdecoupler/cdi/ukv_frozen_autosat/20150928T0900Z-016-level_1-01_00266_0.nc
F tremain.knight              0.04 GBP        389435160 2015-09-28 15:19:52 GMT moose:/adhoc/projects/hpcdecoupler/cdi/ukv_frozen_autosat/20150928T0900Z-016-level_1-01_00267_0.nc
F tremain.knight              0.04 GBP        389435247 2015-09-28 15:19:57 GMT moose:/adhoc/projects/hpcdecoupler/cdi/ukv_frozen_autosat/20150928T0900Z-016-level_1-01_00268_0.nc
F tremain.knight              0.04 GBP        389435252 2015-09-28 15:20:06 GMT moose:/adhoc/projects/hpcdecoupler/cdi/ukv_frozen_autosat/20150928T0900Z-016-level_1-01_00408_0.nc
F tremain.knight              0.00 GBP          5547857 2015-09-28 15:19:55 GMT moose:/adhoc/projects/hpcdecoupler/cdi/ukv_frozen_autosat/20150928T0900Z-016-level_1-01_00409_0.nc
F tremain.knight              0.00 GBP          5548051 2015-09-28 15:19:55 GMT moose:/adhoc/projects/hpcdecoupler/cdi/ukv_frozen_autosat/20150928T0900Z-016-level_1-01_03209_0.nc
F tremain.knight              0.00 GBP          5554011 2015-09-28 15:20:03 GMT moose:/adhoc/projects/hpcdecoupler/cdi/ukv_frozen_autosat/20150928T0900Z-016-level_1-01_03210_0.nc
F tremain.knight              0.04 GBP        389435298 2015-09-28 15:20:10 GMT moose:/adhoc/projects/hpcdecoupler/cdi/ukv_frozen_autosat/20150928T0900Z-016-level_1-01_09229_0.nc
F tremain.knight              0.04 GBP        389435252 2015-09-28 15:20:16 GMT moose:/adhoc/projects/hpcdecoupler/cdi/ukv_frozen_autosat/20150928T0900Z-016-level_1-01_16004_0.nc
F tremain.knight              0.04 GBP        389435298 2015-09-28 15:20:19 GMT moose:/adhoc/projects/hpcdecoupler/cdi/ukv_frozen_autosat/20150928T0900Z-016-level_1-01_16201_0.nc
F tremain.knight              0.01 GBP         66305866 2015-09-28 15:20:16 GMT moose:/adhoc/projects/hpcdecoupler/cdi/ukv_frozen_autosat/20150928T0900Z-016-level_1-01_16222_0.nc
F tremain.knight              0.17 GBP       1571456897 2015-09-28 15:21:01 GMT moose:/adhoc/projects/hpcdecoupler/cdi/ukv_frozen_autosat/20150928T0900Z-018-level_1-01_00010_0.nc
F tremain.knight              0.17 GBP       1571456800 2015-09-28 15:21:02 GMT moose:/adhoc/projects/hpcdecoupler/cdi/ukv_frozen_autosat/20150928T0900Z-018-level_1-01_00012_0.nc
F tremain.knight              0.00 GBP          5547857 2015-09-28 15:20:18 GMT moose:/adhoc/projects/hpcdecoupler/cdi/ukv_frozen_autosat/20150928T0900Z-018-level_1-01_00023_0.nc
F tremain.knight              0.00 GBP          5547857 2015-09-28 15:20:18 GMT moose:/adhoc/projects/hpcdecoupler/cdi/ukv_frozen_autosat/20150928T0900Z-018-level_1-01_00024_0.nc
F tremain.knight              0.00 GBP         11071260 2015-09-28 15:20:19 GMT moose:/adhoc/projects/hpcdecoupler/cdi/ukv_frozen_autosat/20150928T0900Z-018-level_1-01_00031_0.nc
F tremain.knight              0.00 GBP          5547857 2015-09-28 15:20:19 GMT moose:/adhoc/projects/hpcdecoupler/cdi/ukv_frozen_autosat/20150928T0900Z-018-level_1-01_00033_0.nc
F tremain.knight              0.17 GBP       1571456801 2015-09-28 15:21:02 GMT moose:/adhoc/projects/hpcdecoupler/cdi/ukv_frozen_autosat/20150928T0900Z-018-level_1-01_00254_0.nc
F tremain.knight              0.17 GBP       1549361152 2015-09-28 15:21:31 GMT moose:/adhoc/projects/hpcdecoupler/cdi/ukv_frozen_autosat/20150928T0900Z-018-level_1-01_00266_0.nc
F tremain.knight              0.04 GBP        389435160 2015-09-28 15:21:05 GMT moose:/adhoc/projects/hpcdecoupler/cdi/ukv_frozen_autosat/20150928T0900Z-018-level_1-01_00267_0.nc
F tremain.knight              0.04 GBP        389435247 2015-09-28 15:21:11 GMT moose:/adhoc/projects/hpcdecoupler/cdi/ukv_frozen_autosat/20150928T0900Z-018-level_1-01_00268_0.nc
F tremain.knight              0.04 GBP        389435252 2015-09-28 15:21:15 GMT moose:/adhoc/projects/hpcdecoupler/cdi/ukv_frozen_autosat/20150928T0900Z-018-level_1-01_00408_0.nc
F tremain.knight              0.00 GBP          5547857 2015-09-28 15:21:09 GMT moose:/adhoc/projects/hpcdecoupler/cdi/ukv_frozen_autosat/20150928T0900Z-018-level_1-01_00409_0.nc
F tremain.knight              0.00 GBP          5548051 2015-09-28 15:21:09 GMT moose:/adhoc/projects/hpcdecoupler/cdi/ukv_frozen_autosat/20150928T0900Z-018-level_1-01_03209_0.nc
F tremain.knight              0.00 GBP          5554011 2015-09-28 15:21:10 GMT moose:/adhoc/projects/hpcdecoupler/cdi/ukv_frozen_autosat/20150928T0900Z-018-level_1-01_03210_0.nc
F tremain.knight              0.04 GBP        389435298 2015-09-28 15:21:22 GMT moose:/adhoc/projects/hpcdecoupler/cdi/ukv_frozen_autosat/20150928T0900Z-018-level_1-01_09229_0.nc
F tremain.knight              0.04 GBP        389435252 2015-09-28 15:21:23 GMT moose:/adhoc/projects/hpcdecoupler/cdi/ukv_frozen_autosat/20150928T0900Z-018-level_1-01_16004_0.nc
F tremain.knight              0.04 GBP        389435298 2015-09-28 15:21:30 GMT moose:/adhoc/projects/hpcdecoupler/cdi/ukv_frozen_autosat/20150928T0900Z-018-level_1-01_16201_0.nc
F tremain.knight              0.01 GBP         66305866 2015-09-28 15:21:24 GMT moose:/adhoc/projects/hpcdecoupler/cdi/ukv_frozen_autosat/20150928T0900Z-018-level_1-01_16222_0.nc
F tremain.knight              0.17 GBP       1571456897 2015-09-28 15:22:26 GMT moose:/adhoc/projects/hpcdecoupler/cdi/ukv_frozen_autosat/20150928T0900Z-020-level_1-01_00010_0.nc
F tremain.knight              0.17 GBP       1571456800 2015-09-28 15:22:18 GMT moose:/adhoc/projects/hpcdecoupler/cdi/ukv_frozen_autosat/20150928T0900Z-020-level_1-01_00012_0.nc
F tremain.knight              0.00 GBP          5547857 2015-09-28 15:21:29 GMT moose:/adhoc/projects/hpcdecoupler/cdi/ukv_frozen_autosat/20150928T0900Z-020-level_1-01_00023_0.nc
F tremain.knight              0.00 GBP          5547857 2015-09-28 15:21:29 GMT moose:/adhoc/projects/hpcdecoupler/cdi/ukv_frozen_autosat/20150928T0900Z-020-level_1-01_00024_0.nc
F tremain.knight              0.00 GBP         11071260 2015-09-28 15:21:30 GMT moose:/adhoc/projects/hpcdecoupler/cdi/ukv_frozen_autosat/20150928T0900Z-020-level_1-01_00031_0.nc
F tremain.knight              0.00 GBP          5547857 2015-09-28 15:21:30 GMT moose:/adhoc/projects/hpcdecoupler/cdi/ukv_frozen_autosat/20150928T0900Z-020-level_1-01_00033_0.nc
F tremain.knight              0.17 GBP       1571456801 2015-09-28 15:22:21 GMT moose:/adhoc/projects/hpcdecoupler/cdi/ukv_frozen_autosat/20150928T0900Z-020-level_1-01_00254_0.nc
F tremain.knight              0.17 GBP       1549361152 2015-09-28 15:23:11 GMT moose:/adhoc/projects/hpcdecoupler/cdi/ukv_frozen_autosat/20150928T0900Z-020-level_1-01_00266_0.nc
F tremain.knight              0.04 GBP        389435160 2015-09-28 15:22:25 GMT moose:/adhoc/projects/hpcdecoupler/cdi/ukv_frozen_autosat/20150928T0900Z-020-level_1-01_00267_0.nc
F tremain.knight              0.04 GBP        389435247 2015-09-28 15:22:29 GMT moose:/adhoc/projects/hpcdecoupler/cdi/ukv_frozen_autosat/20150928T0900Z-020-level_1-01_00268_0.nc
F tremain.knight              0.04 GBP        389435252 2015-09-28 15:22:38 GMT moose:/adhoc/projects/hpcdecoupler/cdi/ukv_frozen_autosat/20150928T0900Z-020-level_1-01_00408_0.nc
F tremain.knight              0.00 GBP          5547857 2015-09-28 15:22:26 GMT moose:/adhoc/projects/hpcdecoupler/cdi/ukv_frozen_autosat/20150928T0900Z-020-level_1-01_00409_0.nc
F tremain.knight              0.00 GBP          5548051 2015-09-28 15:22:27 GMT moose:/adhoc/projects/hpcdecoupler/cdi/ukv_frozen_autosat/20150928T0900Z-020-level_1-01_03209_0.nc
F tremain.knight              0.00 GBP          5554011 2015-09-28 15:22:28 GMT moose:/adhoc/projects/hpcdecoupler/cdi/ukv_frozen_autosat/20150928T0900Z-020-level_1-01_03210_0.nc
F tremain.knight              0.04 GBP        389435298 2015-09-28 15:22:41 GMT moose:/adhoc/projects/hpcdecoupler/cdi/ukv_frozen_autosat/20150928T0900Z-020-level_1-01_09229_0.nc
F tremain.knight              0.04 GBP        389435252 2015-09-28 15:22:50 GMT moose:/adhoc/projects/hpcdecoupler/cdi/ukv_frozen_autosat/20150928T0900Z-020-level_1-01_16004_0.nc
F tremain.knight              0.04 GBP        389435298 2015-09-28 15:22:56 GMT moose:/adhoc/projects/hpcdecoupler/cdi/ukv_frozen_autosat/20150928T0900Z-020-level_1-01_16201_0.nc
F tremain.knight              0.01 GBP         66305866 2015-09-28 15:22:51 GMT moose:/adhoc/projects/hpcdecoupler/cdi/ukv_frozen_autosat/20150928T0900Z-020-level_1-01_16222_0.nc
F tremain.knight              0.17 GBP       1571456897 2015-09-28 15:23:48 GMT moose:/adhoc/projects/hpcdecoupler/cdi/ukv_frozen_autosat/20150928T0900Z-022-level_1-01_00010_0.nc
F tremain.knight              0.17 GBP       1571456800 2015-09-28 15:23:53 GMT moose:/adhoc/projects/hpcdecoupler/cdi/ukv_frozen_autosat/20150928T0900Z-022-level_1-01_00012_0.nc
F tremain.knight              0.00 GBP          5547857 2015-09-28 15:22:59 GMT moose:/adhoc/projects/hpcdecoupler/cdi/ukv_frozen_autosat/20150928T0900Z-022-level_1-01_00023_0.nc
F tremain.knight              0.00 GBP          5547857 2015-09-28 15:23:00 GMT moose:/adhoc/projects/hpcdecoupler/cdi/ukv_frozen_autosat/20150928T0900Z-022-level_1-01_00024_0.nc
F tremain.knight              0.00 GBP         11071260 2015-09-28 15:23:00 GMT moose:/adhoc/projects/hpcdecoupler/cdi/ukv_frozen_autosat/20150928T0900Z-022-level_1-01_00031_0.nc
F tremain.knight              0.00 GBP          5547857 2015-09-28 15:23:01 GMT moose:/adhoc/projects/hpcdecoupler/cdi/ukv_frozen_autosat/20150928T0900Z-022-level_1-01_00033_0.nc
F tremain.knight              0.17 GBP       1571456801 2015-09-28 15:24:08 GMT moose:/adhoc/projects/hpcdecoupler/cdi/ukv_frozen_autosat/20150928T0900Z-022-level_1-01_00254_0.nc
F tremain.knight              0.17 GBP       1549361152 2015-09-28 15:24:38 GMT moose:/adhoc/projects/hpcdecoupler/cdi/ukv_frozen_autosat/20150928T0900Z-022-level_1-01_00266_0.nc
F tremain.knight              0.04 GBP        389435160 2015-09-28 15:24:00 GMT moose:/adhoc/projects/hpcdecoupler/cdi/ukv_frozen_autosat/20150928T0900Z-022-level_1-01_00267_0.nc
F tremain.knight              0.04 GBP        389435247 2015-09-28 15:24:12 GMT moose:/adhoc/projects/hpcdecoupler/cdi/ukv_frozen_autosat/20150928T0900Z-022-level_1-01_00268_0.nc
F tremain.knight              0.04 GBP        389435252 2015-09-28 15:24:11 GMT moose:/adhoc/projects/hpcdecoupler/cdi/ukv_frozen_autosat/20150928T0900Z-022-level_1-01_00408_0.nc
F tremain.knight              0.00 GBP          5547857 2015-09-28 15:24:09 GMT moose:/adhoc/projects/hpcdecoupler/cdi/ukv_frozen_autosat/20150928T0900Z-022-level_1-01_00409_0.nc
F tremain.knight              0.00 GBP          5548051 2015-09-28 15:24:10 GMT moose:/adhoc/projects/hpcdecoupler/cdi/ukv_frozen_autosat/20150928T0900Z-022-level_1-01_03209_0.nc
F tremain.knight              0.00 GBP          5554011 2015-09-28 15:24:10 GMT moose:/adhoc/projects/hpcdecoupler/cdi/ukv_frozen_autosat/20150928T0900Z-022-level_1-01_03210_0.nc
F tremain.knight              0.04 GBP        389435298 2015-09-28 15:24:29 GMT moose:/adhoc/projects/hpcdecoupler/cdi/ukv_frozen_autosat/20150928T0900Z-022-level_1-01_09229_0.nc
F tremain.knight              0.04 GBP        389435252 2015-09-28 15:24:26 GMT moose:/adhoc/projects/hpcdecoupler/cdi/ukv_frozen_autosat/20150928T0900Z-022-level_1-01_16004_0.nc
F tremain.knight              0.04 GBP        389435298 2015-09-28 15:24:43 GMT moose:/adhoc/projects/hpcdecoupler/cdi/ukv_frozen_autosat/20150928T0900Z-022-level_1-01_16201_0.nc
F tremain.knight              0.01 GBP         66305866 2015-09-28 15:24:30 GMT moose:/adhoc/projects/hpcdecoupler/cdi/ukv_frozen_autosat/20150928T0900Z-022-level_1-01_16222_0.nc
F tremain.knight              0.17 GBP       1571456897 2015-09-28 15:25:49 GMT moose:/adhoc/projects/hpcdecoupler/cdi/ukv_frozen_autosat/20150928T0900Z-024-level_1-01_00010_0.nc
F tremain.knight              0.17 GBP       1571456800 2015-09-28 15:25:52 GMT moose:/adhoc/projects/hpcdecoupler/cdi/ukv_frozen_autosat/20150928T0900Z-024-level_1-01_00012_0.nc
F tremain.knight              0.00 GBP          5547857 2015-09-28 15:24:41 GMT moose:/adhoc/projects/hpcdecoupler/cdi/ukv_frozen_autosat/20150928T0900Z-024-level_1-01_00023_0.nc
F tremain.knight              0.00 GBP          5547857 2015-09-28 15:24:42 GMT moose:/adhoc/projects/hpcdecoupler/cdi/ukv_frozen_autosat/20150928T0900Z-024-level_1-01_00024_0.nc
F tremain.knight              0.00 GBP         11071260 2015-09-28 15:24:43 GMT moose:/adhoc/projects/hpcdecoupler/cdi/ukv_frozen_autosat/20150928T0900Z-024-level_1-01_00031_0.nc
F tremain.knight              0.00 GBP          5547857 2015-09-28 15:24:44 GMT moose:/adhoc/projects/hpcdecoupler/cdi/ukv_frozen_autosat/20150928T0900Z-024-level_1-01_00033_0.nc
F tremain.knight              0.17 GBP       1571456801 2015-09-28 15:26:11 GMT moose:/adhoc/projects/hpcdecoupler/cdi/ukv_frozen_autosat/20150928T0900Z-024-level_1-01_00254_0.nc
F tremain.knight              0.17 GBP       1549361152 2015-09-28 15:27:02 GMT moose:/adhoc/projects/hpcdecoupler/cdi/ukv_frozen_autosat/20150928T0900Z-024-level_1-01_00266_0.nc
F tremain.knight              0.04 GBP        389435160 2015-09-28 15:26:00 GMT moose:/adhoc/projects/hpcdecoupler/cdi/ukv_frozen_autosat/20150928T0900Z-024-level_1-01_00267_0.nc
F tremain.knight              0.04 GBP        389435247 2015-09-28 15:26:18 GMT moose:/adhoc/projects/hpcdecoupler/cdi/ukv_frozen_autosat/20150928T0900Z-024-level_1-01_00268_0.nc
F tremain.knight              0.04 GBP        389435252 2015-09-28 15:26:25 GMT moose:/adhoc/projects/hpcdecoupler/cdi/ukv_frozen_autosat/20150928T0900Z-024-level_1-01_00408_0.nc
F tremain.knight              0.00 GBP          5547857 2015-09-28 15:26:18 GMT moose:/adhoc/projects/hpcdecoupler/cdi/ukv_frozen_autosat/20150928T0900Z-024-level_1-01_00409_0.nc
F tremain.knight              0.00 GBP          5548051 2015-09-28 15:26:18 GMT moose:/adhoc/projects/hpcdecoupler/cdi/ukv_frozen_autosat/20150928T0900Z-024-level_1-01_03209_0.nc
F tremain.knight              0.00 GBP          5554011 2015-09-28 15:26:18 GMT moose:/adhoc/projects/hpcdecoupler/cdi/ukv_frozen_autosat/20150928T0900Z-024-level_1-01_03210_0.nc
F tremain.knight              0.04 GBP        389435298 2015-09-28 15:26:41 GMT moose:/adhoc/projects/hpcdecoupler/cdi/ukv_frozen_autosat/20150928T0900Z-024-level_1-01_09229_0.nc
F tremain.knight              0.04 GBP        389435252 2015-09-28 15:26:43 GMT moose:/adhoc/projects/hpcdecoupler/cdi/ukv_frozen_autosat/20150928T0900Z-024-level_1-01_16004_0.nc
F tremain.knight              0.04 GBP        389435298 2015-09-28 15:27:00 GMT moose:/adhoc/projects/hpcdecoupler/cdi/ukv_frozen_autosat/20150928T0900Z-024-level_1-01_16201_0.nc
F tremain.knight              0.01 GBP         66305866 2015-09-28 15:26:44 GMT moose:/adhoc/projects/hpcdecoupler/cdi/ukv_frozen_autosat/20150928T0900Z-024-level_1-01_16222_0.nc
F tremain.knight              0.17 GBP       1571456897 2015-09-28 15:28:00 GMT moose:/adhoc/projects/hpcdecoupler/cdi/ukv_frozen_autosat/20150928T0900Z-026-level_1-01_00010_0.nc
F tremain.knight              0.17 GBP       1571456800 2015-09-28 15:28:18 GMT moose:/adhoc/projects/hpcdecoupler/cdi/ukv_frozen_autosat/20150928T0900Z-026-level_1-01_00012_0.nc
F tremain.knight              0.00 GBP          5547857 2015-09-28 15:27:03 GMT moose:/adhoc/projects/hpcdecoupler/cdi/ukv_frozen_autosat/20150928T0900Z-026-level_1-01_00023_0.nc
F tremain.knight              0.00 GBP          5547857 2015-09-28 15:27:00 GMT moose:/adhoc/projects/hpcdecoupler/cdi/ukv_frozen_autosat/20150928T0900Z-026-level_1-01_00024_0.nc
F tremain.knight              0.00 GBP         11071260 2015-09-28 15:27:01 GMT moose:/adhoc/projects/hpcdecoupler/cdi/ukv_frozen_autosat/20150928T0900Z-026-level_1-01_00031_0.nc
F tremain.knight              0.00 GBP          5547857 2015-09-28 15:27:01 GMT moose:/adhoc/projects/hpcdecoupler/cdi/ukv_frozen_autosat/20150928T0900Z-026-level_1-01_00033_0.nc
F tremain.knight              0.17 GBP       1571456801 2015-09-28 15:28:15 GMT moose:/adhoc/projects/hpcdecoupler/cdi/ukv_frozen_autosat/20150928T0900Z-026-level_1-01_00254_0.nc
F tremain.knight              0.17 GBP       1549361152 2015-09-28 15:28:49 GMT moose:/adhoc/projects/hpcdecoupler/cdi/ukv_frozen_autosat/20150928T0900Z-026-level_1-01_00266_0.nc
F tremain.knight              0.04 GBP        389435160 2015-09-28 15:28:09 GMT moose:/adhoc/projects/hpcdecoupler/cdi/ukv_frozen_autosat/20150928T0900Z-026-level_1-01_00267_0.nc
F tremain.knight              0.04 GBP        389435247 2015-09-28 15:28:21 GMT moose:/adhoc/projects/hpcdecoupler/cdi/ukv_frozen_autosat/20150928T0900Z-026-level_1-01_00268_0.nc
F tremain.knight              0.04 GBP        389435252 2015-09-28 15:28:23 GMT moose:/adhoc/projects/hpcdecoupler/cdi/ukv_frozen_autosat/20150928T0900Z-026-level_1-01_00408_0.nc
F tremain.knight              0.00 GBP          5547857 2015-09-28 15:28:20 GMT moose:/adhoc/projects/hpcdecoupler/cdi/ukv_frozen_autosat/20150928T0900Z-026-level_1-01_00409_0.nc
F tremain.knight              0.00 GBP          5548051 2015-09-28 15:28:20 GMT moose:/adhoc/projects/hpcdecoupler/cdi/ukv_frozen_autosat/20150928T0900Z-026-level_1-01_03209_0.nc
F tremain.knight              0.00 GBP          5554011 2015-09-28 15:28:21 GMT moose:/adhoc/projects/hpcdecoupler/cdi/ukv_frozen_autosat/20150928T0900Z-026-level_1-01_03210_0.nc
F tremain.knight              0.04 GBP        389435298 2015-09-28 15:28:35 GMT moose:/adhoc/projects/hpcdecoupler/cdi/ukv_frozen_autosat/20150928T0900Z-026-level_1-01_09229_0.nc
F tremain.knight              0.04 GBP        389435252 2015-09-28 15:28:37 GMT moose:/adhoc/projects/hpcdecoupler/cdi/ukv_frozen_autosat/20150928T0900Z-026-level_1-01_16004_0.nc
F tremain.knight              0.04 GBP        389435298 2015-09-28 15:28:50 GMT moose:/adhoc/projects/hpcdecoupler/cdi/ukv_frozen_autosat/20150928T0900Z-026-level_1-01_16201_0.nc
F tremain.knight              0.01 GBP         66305866 2015-09-28 15:28:37 GMT moose:/adhoc/projects/hpcdecoupler/cdi/ukv_frozen_autosat/20150928T0900Z-026-level_1-01_16222_0.nc
F tremain.knight              0.17 GBP       1571456897 2015-09-28 15:29:42 GMT moose:/adhoc/projects/hpcdecoupler/cdi/ukv_frozen_autosat/20150928T0900Z-028-level_1-01_00010_0.nc
F tremain.knight              0.17 GBP       1571456800 2015-09-28 15:29:35 GMT moose:/adhoc/projects/hpcdecoupler/cdi/ukv_frozen_autosat/20150928T0900Z-028-level_1-01_00012_0.nc
F tremain.knight              0.00 GBP          5547857 2015-09-28 15:28:48 GMT moose:/adhoc/projects/hpcdecoupler/cdi/ukv_frozen_autosat/20150928T0900Z-028-level_1-01_00023_0.nc
F tremain.knight              0.00 GBP          5547857 2015-09-28 15:28:48 GMT moose:/adhoc/projects/hpcdecoupler/cdi/ukv_frozen_autosat/20150928T0900Z-028-level_1-01_00024_0.nc
F tremain.knight              0.00 GBP         11071260 2015-09-28 15:28:49 GMT moose:/adhoc/projects/hpcdecoupler/cdi/ukv_frozen_autosat/20150928T0900Z-028-level_1-01_00031_0.nc
F tremain.knight              0.00 GBP          5547857 2015-09-28 15:28:50 GMT moose:/adhoc/projects/hpcdecoupler/cdi/ukv_frozen_autosat/20150928T0900Z-028-level_1-01_00033_0.nc
F tremain.knight              0.17 GBP       1571456801 2015-09-28 15:29:47 GMT moose:/adhoc/projects/hpcdecoupler/cdi/ukv_frozen_autosat/20150928T0900Z-028-level_1-01_00254_0.nc
F tremain.knight              0.17 GBP       1549361152 2015-09-28 15:30:45 GMT moose:/adhoc/projects/hpcdecoupler/cdi/ukv_frozen_autosat/20150928T0900Z-028-level_1-01_00266_0.nc
F tremain.knight              0.04 GBP        389435160 2015-09-28 15:29:46 GMT moose:/adhoc/projects/hpcdecoupler/cdi/ukv_frozen_autosat/20150928T0900Z-028-level_1-01_00267_0.nc
F tremain.knight              0.04 GBP        389435247 2015-09-28 15:29:56 GMT moose:/adhoc/projects/hpcdecoupler/cdi/ukv_frozen_autosat/20150928T0900Z-028-level_1-01_00268_0.nc
F tremain.knight              0.04 GBP        389435252 2015-09-28 15:29:57 GMT moose:/adhoc/projects/hpcdecoupler/cdi/ukv_frozen_autosat/20150928T0900Z-028-level_1-01_00408_0.nc
F tremain.knight              0.00 GBP          5547857 2015-09-28 15:29:55 GMT moose:/adhoc/projects/hpcdecoupler/cdi/ukv_frozen_autosat/20150928T0900Z-028-level_1-01_00409_0.nc
F tremain.knight              0.00 GBP          5548051 2015-09-28 15:29:56 GMT moose:/adhoc/projects/hpcdecoupler/cdi/ukv_frozen_autosat/20150928T0900Z-028-level_1-01_03209_0.nc
F tremain.knight              0.00 GBP          5554011 2015-09-28 15:29:56 GMT moose:/adhoc/projects/hpcdecoupler/cdi/ukv_frozen_autosat/20150928T0900Z-028-level_1-01_03210_0.nc
F tremain.knight              0.04 GBP        389435298 2015-09-28 15:30:11 GMT moose:/adhoc/projects/hpcdecoupler/cdi/ukv_frozen_autosat/20150928T0900Z-028-level_1-01_09229_0.nc
F tremain.knight              0.04 GBP        389435252 2015-09-28 15:30:10 GMT moose:/adhoc/projects/hpcdecoupler/cdi/ukv_frozen_autosat/20150928T0900Z-028-level_1-01_16004_0.nc
F tremain.knight              0.04 GBP        389435298 2015-09-28 15:30:43 GMT moose:/adhoc/projects/hpcdecoupler/cdi/ukv_frozen_autosat/20150928T0900Z-028-level_1-01_16201_0.nc
F tremain.knight              0.01 GBP         66305866 2015-09-28 15:30:14 GMT moose:/adhoc/projects/hpcdecoupler/cdi/ukv_frozen_autosat/20150928T0900Z-028-level_1-01_16222_0.nc
F tremain.knight              0.17 GBP       1571456897 2015-09-28 15:30:59 GMT moose:/adhoc/projects/hpcdecoupler/cdi/ukv_frozen_autosat/20150928T0900Z-030-level_1-01_00010_0.nc
F tremain.knight              0.17 GBP       1571456800 2015-09-28 15:31:42 GMT moose:/adhoc/projects/hpcdecoupler/cdi/ukv_frozen_autosat/20150928T0900Z-030-level_1-01_00012_0.nc
F tremain.knight              0.00 GBP          5547857 2015-09-28 15:30:43 GMT moose:/adhoc/projects/hpcdecoupler/cdi/ukv_frozen_autosat/20150928T0900Z-030-level_1-01_00023_0.nc
F tremain.knight              0.00 GBP          5547857 2015-09-28 15:30:43 GMT moose:/adhoc/projects/hpcdecoupler/cdi/ukv_frozen_autosat/20150928T0900Z-030-level_1-01_00024_0.nc
F tremain.knight              0.00 GBP         11071260 2015-09-28 15:30:44 GMT moose:/adhoc/projects/hpcdecoupler/cdi/ukv_frozen_autosat/20150928T0900Z-030-level_1-01_00031_0.nc
F tremain.knight              0.00 GBP          5547857 2015-09-28 15:30:46 GMT moose:/adhoc/projects/hpcdecoupler/cdi/ukv_frozen_autosat/20150928T0900Z-030-level_1-01_00033_0.nc
F tremain.knight              0.17 GBP       1571456801 2015-09-28 15:31:56 GMT moose:/adhoc/projects/hpcdecoupler/cdi/ukv_frozen_autosat/20150928T0900Z-030-level_1-01_00254_0.nc
F tremain.knight              0.17 GBP       1549361152 2015-09-28 15:31:48 GMT moose:/adhoc/projects/hpcdecoupler/cdi/ukv_frozen_autosat/20150928T0900Z-030-level_1-01_00266_0.nc
F tremain.knight              0.04 GBP        389435160 2015-09-28 15:31:48 GMT moose:/adhoc/projects/hpcdecoupler/cdi/ukv_frozen_autosat/20150928T0900Z-030-level_1-01_00267_0.nc
F tremain.knight              0.04 GBP        389435247 2015-09-28 15:31:58 GMT moose:/adhoc/projects/hpcdecoupler/cdi/ukv_frozen_autosat/20150928T0900Z-030-level_1-01_00268_0.nc
F tremain.knight              0.04 GBP        389435252 2015-09-28 15:31:58 GMT moose:/adhoc/projects/hpcdecoupler/cdi/ukv_frozen_autosat/20150928T0900Z-030-level_1-01_00408_0.nc
F tremain.knight              0.00 GBP          5547857 2015-09-28 15:31:47 GMT moose:/adhoc/projects/hpcdecoupler/cdi/ukv_frozen_autosat/20150928T0900Z-030-level_1-01_00409_0.nc
F tremain.knight              0.00 GBP          5548051 2015-09-28 15:31:47 GMT moose:/adhoc/projects/hpcdecoupler/cdi/ukv_frozen_autosat/20150928T0900Z-030-level_1-01_03209_0.nc
F tremain.knight              0.00 GBP          5554011 2015-09-28 15:31:48 GMT moose:/adhoc/projects/hpcdecoupler/cdi/ukv_frozen_autosat/20150928T0900Z-030-level_1-01_03210_0.nc
F tremain.knight              0.04 GBP        389435298 2015-09-28 15:32:03 GMT moose:/adhoc/projects/hpcdecoupler/cdi/ukv_frozen_autosat/20150928T0900Z-030-level_1-01_09229_0.nc
F tremain.knight              0.04 GBP        389435252 2015-09-28 15:32:09 GMT moose:/adhoc/projects/hpcdecoupler/cdi/ukv_frozen_autosat/20150928T0900Z-030-level_1-01_16004_0.nc
F tremain.knight              0.04 GBP        389435298 2015-09-28 15:32:09 GMT moose:/adhoc/projects/hpcdecoupler/cdi/ukv_frozen_autosat/20150928T0900Z-030-level_1-01_16201_0.nc
F tremain.knight              0.01 GBP         66305866 2015-09-28 15:32:05 GMT moose:/adhoc/projects/hpcdecoupler/cdi/ukv_frozen_autosat/20150928T0900Z-030-level_1-01_16222_0.nc
F tremain.knight              0.17 GBP       1571456897 2015-09-28 15:33:01 GMT moose:/adhoc/projects/hpcdecoupler/cdi/ukv_frozen_autosat/20150928T0900Z-032-level_1-01_00010_0.nc
F tremain.knight              0.17 GBP       1571456800 2015-09-28 15:33:05 GMT moose:/adhoc/projects/hpcdecoupler/cdi/ukv_frozen_autosat/20150928T0900Z-032-level_1-01_00012_0.nc
F tremain.knight              0.00 GBP          5547857 2015-09-28 15:32:11 GMT moose:/adhoc/projects/hpcdecoupler/cdi/ukv_frozen_autosat/20150928T0900Z-032-level_1-01_00023_0.nc
F tremain.knight              0.00 GBP          5547857 2015-09-28 15:32:11 GMT moose:/adhoc/projects/hpcdecoupler/cdi/ukv_frozen_autosat/20150928T0900Z-032-level_1-01_00024_0.nc
F tremain.knight              0.00 GBP         11071260 2015-09-28 15:32:12 GMT moose:/adhoc/projects/hpcdecoupler/cdi/ukv_frozen_autosat/20150928T0900Z-032-level_1-01_00031_0.nc
F tremain.knight              0.00 GBP          5547857 2015-09-28 15:32:12 GMT moose:/adhoc/projects/hpcdecoupler/cdi/ukv_frozen_autosat/20150928T0900Z-032-level_1-01_00033_0.nc
F tremain.knight              0.17 GBP       1571456801 2015-09-28 15:33:21 GMT moose:/adhoc/projects/hpcdecoupler/cdi/ukv_frozen_autosat/20150928T0900Z-032-level_1-01_00254_0.nc
F tremain.knight              0.17 GBP       1549361152 2015-09-28 15:33:53 GMT moose:/adhoc/projects/hpcdecoupler/cdi/ukv_frozen_autosat/20150928T0900Z-032-level_1-01_00266_0.nc
F tremain.knight              0.04 GBP        389435160 2015-09-28 15:33:14 GMT moose:/adhoc/projects/hpcdecoupler/cdi/ukv_frozen_autosat/20150928T0900Z-032-level_1-01_00267_0.nc
F tremain.knight              0.04 GBP        389435247 2015-09-28 15:33:28 GMT moose:/adhoc/projects/hpcdecoupler/cdi/ukv_frozen_autosat/20150928T0900Z-032-level_1-01_00268_0.nc
F tremain.knight              0.04 GBP        389435252 2015-09-28 15:33:27 GMT moose:/adhoc/projects/hpcdecoupler/cdi/ukv_frozen_autosat/20150928T0900Z-032-level_1-01_00408_0.nc
F tremain.knight              0.00 GBP          5547857 2015-09-28 15:33:25 GMT moose:/adhoc/projects/hpcdecoupler/cdi/ukv_frozen_autosat/20150928T0900Z-032-level_1-01_00409_0.nc
F tremain.knight              0.00 GBP          5548051 2015-09-28 15:33:26 GMT moose:/adhoc/projects/hpcdecoupler/cdi/ukv_frozen_autosat/20150928T0900Z-032-level_1-01_03209_0.nc
F tremain.knight              0.00 GBP          5554011 2015-09-28 15:33:26 GMT moose:/adhoc/projects/hpcdecoupler/cdi/ukv_frozen_autosat/20150928T0900Z-032-level_1-01_03210_0.nc
F tremain.knight              0.04 GBP        389435298 2015-09-28 15:33:46 GMT moose:/adhoc/projects/hpcdecoupler/cdi/ukv_frozen_autosat/20150928T0900Z-032-level_1-01_09229_0.nc
F tremain.knight              0.04 GBP        389435252 2015-09-28 15:33:41 GMT moose:/adhoc/projects/hpcdecoupler/cdi/ukv_frozen_autosat/20150928T0900Z-032-level_1-01_16004_0.nc
F tremain.knight              0.04 GBP        389435298 2015-09-28 15:33:57 GMT moose:/adhoc/projects/hpcdecoupler/cdi/ukv_frozen_autosat/20150928T0900Z-032-level_1-01_16201_0.nc
F tremain.knight              0.01 GBP         66305866 2015-09-28 15:33:48 GMT moose:/adhoc/projects/hpcdecoupler/cdi/ukv_frozen_autosat/20150928T0900Z-032-level_1-01_16222_0.nc
F tremain.knight              0.17 GBP       1571456897 2015-09-28 15:34:52 GMT moose:/adhoc/projects/hpcdecoupler/cdi/ukv_frozen_autosat/20150928T0900Z-034-level_1-01_00010_0.nc
F tremain.knight              0.17 GBP       1571456800 2015-09-28 15:34:52 GMT moose:/adhoc/projects/hpcdecoupler/cdi/ukv_frozen_autosat/20150928T0900Z-034-level_1-01_00012_0.nc
F tremain.knight              0.00 GBP          5547857 2015-09-28 15:33:54 GMT moose:/adhoc/projects/hpcdecoupler/cdi/ukv_frozen_autosat/20150928T0900Z-034-level_1-01_00023_0.nc
F tremain.knight              0.00 GBP          5547857 2015-09-28 15:33:55 GMT moose:/adhoc/projects/hpcdecoupler/cdi/ukv_frozen_autosat/20150928T0900Z-034-level_1-01_00024_0.nc
F tremain.knight              0.00 GBP         11071260 2015-09-28 15:33:55 GMT moose:/adhoc/projects/hpcdecoupler/cdi/ukv_frozen_autosat/20150928T0900Z-034-level_1-01_00031_0.nc
F tremain.knight              0.00 GBP          5547857 2015-09-28 15:33:56 GMT moose:/adhoc/projects/hpcdecoupler/cdi/ukv_frozen_autosat/20150928T0900Z-034-level_1-01_00033_0.nc
F tremain.knight              0.17 GBP       1571456801 2015-09-28 15:34:54 GMT moose:/adhoc/projects/hpcdecoupler/cdi/ukv_frozen_autosat/20150928T0900Z-034-level_1-01_00254_0.nc
F tremain.knight              0.17 GBP       1549361152 2015-09-28 15:35:38 GMT moose:/adhoc/projects/hpcdecoupler/cdi/ukv_frozen_autosat/20150928T0900Z-034-level_1-01_00266_0.nc
F tremain.knight              0.04 GBP        389435160 2015-09-28 15:34:59 GMT moose:/adhoc/projects/hpcdecoupler/cdi/ukv_frozen_autosat/20150928T0900Z-034-level_1-01_00267_0.nc
F tremain.knight              0.04 GBP        389435247 2015-09-28 15:34:58 GMT moose:/adhoc/projects/hpcdecoupler/cdi/ukv_frozen_autosat/20150928T0900Z-034-level_1-01_00268_0.nc
F tremain.knight              0.04 GBP        389435252 2015-09-28 15:35:15 GMT moose:/adhoc/projects/hpcdecoupler/cdi/ukv_frozen_autosat/20150928T0900Z-034-level_1-01_00408_0.nc
F tremain.knight              0.00 GBP          5547857 2015-09-28 15:34:57 GMT moose:/adhoc/projects/hpcdecoupler/cdi/ukv_frozen_autosat/20150928T0900Z-034-level_1-01_00409_0.nc
F tremain.knight              0.00 GBP          5548051 2015-09-28 15:34:57 GMT moose:/adhoc/projects/hpcdecoupler/cdi/ukv_frozen_autosat/20150928T0900Z-034-level_1-01_03209_0.nc
F tremain.knight              0.00 GBP          5554011 2015-09-28 15:34:58 GMT moose:/adhoc/projects/hpcdecoupler/cdi/ukv_frozen_autosat/20150928T0900Z-034-level_1-01_03210_0.nc
F tremain.knight              0.04 GBP        389435298 2015-09-28 15:35:12 GMT moose:/adhoc/projects/hpcdecoupler/cdi/ukv_frozen_autosat/20150928T0900Z-034-level_1-01_09229_0.nc
F tremain.knight              0.04 GBP        389435252 2015-09-28 15:35:21 GMT moose:/adhoc/projects/hpcdecoupler/cdi/ukv_frozen_autosat/20150928T0900Z-034-level_1-01_16004_0.nc
F tremain.knight              0.04 GBP        389435298 2015-09-28 15:35:32 GMT moose:/adhoc/projects/hpcdecoupler/cdi/ukv_frozen_autosat/20150928T0900Z-034-level_1-01_16201_0.nc
F tremain.knight              0.01 GBP         66305866 2015-09-28 15:35:22 GMT moose:/adhoc/projects/hpcdecoupler/cdi/ukv_frozen_autosat/20150928T0900Z-034-level_1-01_16222_0.nc
F tremain.knight              0.17 GBP       1571456897 2015-09-28 15:36:27 GMT moose:/adhoc/projects/hpcdecoupler/cdi/ukv_frozen_autosat/20150928T0900Z-036-level_1-01_00010_0.nc
F tremain.knight              0.17 GBP       1571456800 2015-09-28 15:36:26 GMT moose:/adhoc/projects/hpcdecoupler/cdi/ukv_frozen_autosat/20150928T0900Z-036-level_1-01_00012_0.nc
F tremain.knight              0.00 GBP          5547857 2015-09-28 15:35:31 GMT moose:/adhoc/projects/hpcdecoupler/cdi/ukv_frozen_autosat/20150928T0900Z-036-level_1-01_00023_0.nc
F tremain.knight              0.00 GBP          5547857 2015-09-28 15:35:34 GMT moose:/adhoc/projects/hpcdecoupler/cdi/ukv_frozen_autosat/20150928T0900Z-036-level_1-01_00024_0.nc
F tremain.knight              0.00 GBP         11071260 2015-09-28 15:35:34 GMT moose:/adhoc/projects/hpcdecoupler/cdi/ukv_frozen_autosat/20150928T0900Z-036-level_1-01_00031_0.nc
F tremain.knight              0.00 GBP          5547857 2015-09-28 15:35:35 GMT moose:/adhoc/projects/hpcdecoupler/cdi/ukv_frozen_autosat/20150928T0900Z-036-level_1-01_00033_0.nc
F tremain.knight              0.17 GBP       1571456801 2015-09-28 15:36:30 GMT moose:/adhoc/projects/hpcdecoupler/cdi/ukv_frozen_autosat/20150928T0900Z-036-level_1-01_00254_0.nc
F tremain.knight              0.17 GBP       1549361152 2015-09-28 15:37:19 GMT moose:/adhoc/projects/hpcdecoupler/cdi/ukv_frozen_autosat/20150928T0900Z-036-level_1-01_00266_0.nc
F tremain.knight              0.04 GBP        389435160 2015-09-28 15:36:33 GMT moose:/adhoc/projects/hpcdecoupler/cdi/ukv_frozen_autosat/20150928T0900Z-036-level_1-01_00267_0.nc
F tremain.knight              0.04 GBP        389435247 2015-09-28 15:36:40 GMT moose:/adhoc/projects/hpcdecoupler/cdi/ukv_frozen_autosat/20150928T0900Z-036-level_1-01_00268_0.nc
F tremain.knight              0.04 GBP        389435252 2015-09-28 15:36:47 GMT moose:/adhoc/projects/hpcdecoupler/cdi/ukv_frozen_autosat/20150928T0900Z-036-level_1-01_00408_0.nc
F tremain.knight              0.00 GBP          5547857 2015-09-28 15:36:39 GMT moose:/adhoc/projects/hpcdecoupler/cdi/ukv_frozen_autosat/20150928T0900Z-036-level_1-01_00409_0.nc
F tremain.knight              0.00 GBP          5548051 2015-09-28 15:36:40 GMT moose:/adhoc/projects/hpcdecoupler/cdi/ukv_frozen_autosat/20150928T0900Z-036-level_1-01_03209_0.nc
F tremain.knight              0.00 GBP          5554011 2015-09-28 15:36:41 GMT moose:/adhoc/projects/hpcdecoupler/cdi/ukv_frozen_autosat/20150928T0900Z-036-level_1-01_03210_0.nc
F tremain.knight              0.04 GBP        389435298 2015-09-28 15:36:58 GMT moose:/adhoc/projects/hpcdecoupler/cdi/ukv_frozen_autosat/20150928T0900Z-036-level_1-01_09229_0.nc
F tremain.knight              0.04 GBP        389435252 2015-09-28 15:37:02 GMT moose:/adhoc/projects/hpcdecoupler/cdi/ukv_frozen_autosat/20150928T0900Z-036-level_1-01_16004_0.nc
F tremain.knight              0.04 GBP        389435298 2015-09-28 15:37:11 GMT moose:/adhoc/projects/hpcdecoupler/cdi/ukv_frozen_autosat/20150928T0900Z-036-level_1-01_16201_0.nc
F tremain.knight              0.01 GBP         66305866 2015-09-28 15:37:03 GMT moose:/adhoc/projects/hpcdecoupler/cdi/ukv_frozen_autosat/20150928T0900Z-036-level_1-01_16222_0.nc
F tremain.knight              0.00 GBP          2785996 2015-09-28 15:37:05 GMT moose:/adhoc/projects/hpcdecoupler/cdi/ukv_frozen_autosat/20150928T0900Z-038-level_1-01_16222_0.nc

