{
  "01_00002_0": [
    13.125824928283691, 
    13.298967123031616, 
    16.592419862747192, 
    13.572684049606323, 
    13.01182508468628, 
    12.709774017333984, 
    12.7134370803833, 
    13.22910213470459, 
    12.830621004104614, 
    12.347054958343506
  ], 
  "01_00012_0": [
    8.439371109008789, 
    8.481957912445068, 
    8.538755893707275, 
    8.42906379699707, 
    8.052228212356567, 
    7.918101072311401, 
    7.747786998748779, 
    7.66880202293396, 
    7.766623020172119, 
    7.918856143951416
  ], 
  "01_00254_0": [
    8.333281993865967, 
    8.280394077301025, 
    8.258824110031128, 
    8.21342396736145, 
    8.231124877929688, 
    9.680787086486816, 
    8.542850017547607, 
    9.918814897537231, 
    8.58704400062561, 
    8.7396559715271
  ], 
  "01_00266_0": [
    2.536708116531372, 
    2.3810389041900635, 
    2.510793924331665, 
    5.188063859939575, 
    2.6030988693237305, 
    2.800175905227661, 
    2.369304895401001, 
    3.4387319087982178, 
    2.596411943435669, 
    2.504223108291626
  ], 
  "01_00408_0": [
    49.032580852508545, 
    47.31100106239319, 
    45.919090032577515, 
    46.690476179122925, 
    44.67263078689575, 
    47.472310066223145, 
    47.78073596954346, 
    47.94776105880737, 
    46.95483708381653, 
    46.12981414794922
  ], 
  "01_03236_0": [
    0.3410770893096924, 
    0.326430082321167, 
    0.3327059745788574, 
    0.4430360794067383, 
    0.3386721611022949, 
    0.33122682571411133, 
    0.4890880584716797, 
    0.3854100704193115, 
    0.8298208713531494, 
    0.33170413970947266
  ], 
  "01_03281_0": [
    0.7229440212249756, 
    0.5520482063293457, 
    0.5457289218902588, 
    0.6694400310516357, 
    0.60418701171875, 
    0.5193870067596436, 
    0.5472869873046875, 
    0.5457158088684082, 
    0.540259838104248, 
    0.5420830249786377
  ], 
  "01_04203_0": [
    0.5046770572662354, 
    0.7196719646453857, 
    0.7229268550872803, 
    0.48417186737060547, 
    0.25727295875549316, 
    0.7944388389587402, 
    0.31647706031799316, 
    0.3076000213623047, 
    0.26810598373413086, 
    0.29163408279418945
  ], 
  "01_16004_0": [
    10.94035816192627, 
    12.344851016998291, 
    11.445106983184814, 
    11.056650876998901, 
    10.956835985183716, 
    11.052977800369263, 
    10.911361932754517, 
    10.905550003051758, 
    11.074191093444824, 
    10.881454944610596
  ], 
  "01_16222_0": [
    0.5204019546508789, 
    0.5093929767608643, 
    0.6509180068969727, 
    0.5263140201568604, 
    0.5209629535675049, 
    0.5264461040496826, 
    0.5087640285491943, 
    0.5179669857025146, 
    0.5312390327453613, 
    0.670734167098999
  ], 
  "max": {
    "01_00002_0": 73.60316467285156, 
    "01_00012_0": 0.0012314317282289267, 
    "01_00254_0": 0.001145500224083662, 
    "01_00266_0": 1.0, 
    "01_00408_0": 103843.1484375, 
    "01_03236_0": 316.6069030761719, 
    "01_03281_0": 30334.880859375, 
    "01_04203_0": 0.004748071078211069, 
    "01_16004_0": 314.9315490722656, 
    "01_16222_0": 103903.21875
  }, 
  "min": {
    "01_00002_0": -55.314762115478516, 
    "01_00012_0": -9.41752809069385e-09, 
    "01_00254_0": 0.0, 
    "01_00266_0": -0.0007370734238065779, 
    "01_00408_0": 21165.244140625, 
    "01_03236_0": 191.73410034179688, 
    "01_03281_0": 13.56760025024414, 
    "01_04203_0": 0.0, 
    "01_16004_0": 196.98890686035156, 
    "01_16222_0": 94235.0859375
  }, 
  "size": {
    "01_00002_0": 135995058, 
    "01_00012_0": 64899350, 
    "01_00254_0": 66674993, 
    "01_00266_0": 14516456, 
    "01_00408_0": 555543616, 
    "01_03236_0": 3543134, 
    "01_03281_0": 10636901, 
    "01_04203_0": 891752, 
    "01_16004_0": 104770983, 
    "01_16222_0": 7605118
  }
}