{
  "01_00002_0": [
    7.427750110626221, 
    8.73238492012024, 
    8.142452955245972, 
    7.601707220077515, 
    8.215818166732788, 
    8.325834035873413, 
    8.179908990859985, 
    8.231518030166626, 
    7.342911958694458, 
    7.149333953857422
  ], 
  "01_00012_0": [
    8.092220067977905, 
    9.01131010055542, 
    9.23462200164795, 
    8.45389699935913, 
    8.946295976638794, 
    7.286650896072388, 
    7.608328104019165, 
    7.262166976928711, 
    7.592292070388794, 
    8.81864309310913
  ], 
  "01_00254_0": [
    8.025701999664307, 
    9.190993070602417, 
    8.300306797027588, 
    8.998553037643433, 
    8.995442867279053, 
    9.220548868179321, 
    9.544395923614502, 
    8.331147909164429, 
    8.934286117553711, 
    8.201014041900635
  ], 
  "01_00266_0": [
    2.5288960933685303, 
    2.93914794921875, 
    2.3162529468536377, 
    1.845123052597046, 
    2.497337818145752, 
    3.02000093460083, 
    2.5987401008605957, 
    2.577850103378296, 
    3.1038780212402344, 
    3.3888120651245117
  ], 
  "01_00408_0": [
    13.793948888778687, 
    12.41995096206665, 
    11.312352180480957, 
    12.435177087783813, 
    11.829264163970947, 
    12.286560773849487, 
    14.113584995269775, 
    11.4234459400177, 
    10.499268054962158, 
    11.515733003616333
  ], 
  "01_03236_0": [
    0.2241969108581543, 
    0.28079891204833984, 
    0.36563801765441895, 
    0.3466188907623291, 
    0.30338001251220703, 
    0.3243448734283447, 
    0.5286288261413574, 
    0.4866170883178711, 
    0.4030590057373047, 
    0.35134410858154297
  ], 
  "01_03281_0": [
    0.24212408065795898, 
    0.5733931064605713, 
    0.17667579650878906, 
    0.41693997383117676, 
    0.2633030414581299, 
    0.5414001941680908, 
    0.20537781715393066, 
    0.21542596817016602, 
    0.27368998527526855, 
    0.43667101860046387
  ], 
  "01_04203_0": [
    0.45989108085632324, 
    0.36987900733947754, 
    0.4059150218963623, 
    0.29073190689086914, 
    0.5689611434936523, 
    0.22626590728759766, 
    0.4560701847076416, 
    0.09236001968383789, 
    0.3260469436645508, 
    0.14549493789672852
  ], 
  "01_16004_0": [
    5.900091886520386, 
    7.015536069869995, 
    6.966413974761963, 
    6.025349855422974, 
    6.689512014389038, 
    7.792874813079834, 
    7.314821004867554, 
    7.217690944671631, 
    6.47339391708374, 
    6.859912157058716
  ], 
  "01_16222_0": [
    0.31149983406066895, 
    0.41486692428588867, 
    0.21659183502197266, 
    0.4643089771270752, 
    0.21036982536315918, 
    0.1625680923461914, 
    0.35668206214904785, 
    0.28707408905029297, 
    0.4416811466217041, 
    0.2548208236694336
  ], 
  "max": {
    "01_00002_0": 73.60316467285156, 
    "01_00012_0": 0.0012314317282289267, 
    "01_00254_0": 0.001145500224083662, 
    "01_00266_0": 1.0, 
    "01_00408_0": 103843.1484375, 
    "01_03236_0": 316.6069030761719, 
    "01_03281_0": 30334.880859375, 
    "01_04203_0": 0.004748071078211069, 
    "01_16004_0": 314.9315490722656, 
    "01_16222_0": 103903.21875
  }, 
  "min": {
    "01_00002_0": -55.314762115478516, 
    "01_00012_0": -9.41752809069385e-09, 
    "01_00254_0": 0.0, 
    "01_00266_0": -0.0007370734238065779, 
    "01_00408_0": 21165.244140625, 
    "01_03236_0": 191.73410034179688, 
    "01_03281_0": 13.56760025024414, 
    "01_04203_0": 0.0, 
    "01_16004_0": 196.98890686035156, 
    "01_16222_0": 94235.0859375
  }, 
  "size": {
    "01_00002_0": 760400033, 
    "01_00012_0": 760400132, 
    "01_00254_0": 760400132, 
    "01_00266_0": 253520438, 
    "01_00408_0": 760400071, 
    "01_03236_0": 23120020, 
    "01_03281_0": 23120020, 
    "01_04203_0": 23119993, 
    "01_16004_0": 760400071, 
    "01_16222_0": 23119993
  }
}